100000958243430|tyrone1234
100001663422060|venia1234
100002055721774|lukman786
100007859310562|watik zhu
100012398233198|harry1234
100014884322778|indri herlan
100015141498115|saleh12345
100018757638064|marlon1234
100026335209578|rumadi edi
100027845138146|catur prayitno
100046827240749|rima eri
